<svg xmlns="http://www.w3.org/2000/svg" width="32" height="32" viewBox="0 0 32 32">
    <path fill="#000" fill-rule="nonzero" d="M16 0l.117.007a1 1 0 0 1 0 1.986L16 2C8.268 2 2 8.268 2 16s6.268 14 14 14 14-6.268 14-14c0-5.242-2.881-9.811-7.146-12.21v1.685a1 1 0 0 1-2 0v-4c0-.307.138-.582.356-.766l.017-.02a.998.998 0 0 1 .748-.335h4a1 1 0 0 1 0 2l-1.62-.001C28.942 5.166 32 10.226 32 16c0 8.837-7.163 16-16 16S0 24.837 0 16 7.163 0 16 0zM8.216 12.816c1.536 0 2.508.864 2.508 2.208 0 .42-.084 1.212-.924 1.68.324.132 1.224.588 1.224 1.908 0 1.644-1.272 2.568-2.856 2.568-1.536 0-2.748-.948-2.88-2.484h1.56c.096.66.564 1.14 1.332 1.14.9 0 1.284-.66 1.284-1.272 0-.588-.36-1.248-1.332-1.248h-.204v-1.128h.216c.768 0 1.092-.54 1.092-1.092 0-.636-.42-1.056-1.056-1.056-.552 0-1.068.36-1.104 1.044H5.612c.144-1.452 1.236-2.268 2.604-2.268zm7.804-.156l1.104.84-1.896 2.424c.252-.108.54-.192.9-.192 1.296 0 2.52.936 2.52 2.604 0 1.416-.9 2.844-3.036 2.844-2.028 0-3.036-1.308-3.036-2.76 0-1.02.492-1.812 1.008-2.496l2.436-3.264zm9.076.336v1.344h-2.664l-.288 1.26c.156-.024.324-.048.528-.048 1.572 0 2.784.984 2.784 2.712 0 1.512-.924 2.916-3.132 2.916-.636 0-1.644-.108-2.58-1.02l.516-1.344c.36.444 1.032 1.02 2.028 1.02.96 0 1.608-.636 1.608-1.548 0-.84-.588-1.608-1.812-1.608-.408 0-.96.084-1.536.516h-.096l.948-4.2h3.696zm-9.484 3.984c-.84 0-1.476.624-1.476 1.476s.636 1.476 1.476 1.476 1.476-.624 1.476-1.476-.636-1.476-1.476-1.476z"/>
</svg>
